MolName,SMILES
QUAT 6 (P),CCCCCCCCCCCCCCCC(NCCNC(C[N+](C)(C)C)=O)CCCCCCCCCCCCCCC
QUAT 6 (L),CCCCCCCCCCCC(NCCNC(C[N+](C)(C)C)=O)CCCCCCCCCCC
QUAT 7,CCCCCCCCCCCCCCCC(NCCOC(C[N+](C)(C)C)=O)CCCCCCCCCCCCCCC
QUAT 8,CCCCCCCCCCCCCCCCCCNC(C[N+](C)(C)C)=O
QUAT 9,CCCCCCCCCCCCCCCCCCOC(C[N+](C)(C)C)=O
QUAT 10 ,CCCCCCCCCCCCCCCC(C(C(OCC[N+](C)(C)C)=O)C(OCC[N+](C)(C)C)=O)CCCCCCCCCCCCCCC
QUAT 11,CCCCCCCCCCCCCCCC(C(OCC[N+](C)(C)C)=O)CCCCCCCCCCCCCCC
QUAT2L,CCCCCCCCCCCC([N+](C)(C)C)CCCCCCCCCCC
QUAT2LO,CCCCC/C=C/CCCCC([N+](C)(C)C)CCCCCCCCCCC
QUAT2P,CCCCCCCCCCCCCCCC([N+](C)(C)C)CCCCCCCCCCCCCCC
QUAT2PU,CCCCCCC/C=C/CCCCCCC([N+](C)(C)C)CCCCCCCCCCCCCCC
QUAT2PUU,CCCCCCC/C=C/CCCCCCC([N+](C)(C)C)CCCCCC/C=C/CCCCCCC
QUAT4,CCCCCCCCCCCCCCCC(N(CCC[N+](C)(C)C)CCC[N+](C)(C)C)CCCCCCCCCCCCCCC
QUAT4PS,CCCCCCCCCCCCCCCC([NH+](CCC[N+](C)(C)C)CCC[N+](C)(C)C)CCCCCCCCCCCCCCC.CCCCCCCCCCCCCCCCCCC([O-])=O
NQ13 (P) ,CCCCCCCCCCCCCCCC(N(CC(OCC[N+](C)(C)C)=O)CC(OCC[N+](C)(C)C)=O)CCCCCCCCCCCCCCC
NQ 13 (L) ,CCCCCCCCCCCC(N(CC(OCC[N+](C)(C)C)=O)CC(OCC[N+](C)(C)C)=O)CCCCCCCCCCC
NQ12 (P) ,CCCCCCCCCCCCCCCC(OC(OCC[N+](C)(C)C)=O)CCCCCCCCCCCCCCC
NQ14 (P) ,CCCCCCCCCCCCCCCC(NC(OCC[N+](C)(C)C)=O)CCCCCCCCCCCCCCC
FAc,CCCCCCCCCCCCCCCCCCC([O-])=O
FAL,CCCCCCCCCCCCCCCCCCO
TEP,CCCCCCCC/C=C/CCCCCCCCC(OCC[N+](CCOC(CCCCCCCCCCCCCCCCCC)=O)(C)CCOC(CCCCCCCCCCCCCCCCCC)=O)=O
DEP,CCCCCCCC/C=C/CCCCCCCCC(OCC[N+](CCO)(C)CCOC(CCCCCCCCCCCCCCCCCC)=O)=O
NQ15,CCCCCCCCCCCC(C(NCC[N](C)(C)C)=O)CCCCCCCCCCC
NQ16,CCCCCCCCCCCC(C(NCCC[N+](C)(C)C)=O)CCCCCCCCCCC
Ritu1,CCCCCCCCCCCC(N)CCCCCCCCCCC
Ritu2,CCCCCCCCCCCC(CCCCCCCCCCC)C(=O)O
Ritu3,CCCCCCCCCCCCCCCC(CCCCCCCCCCCCCCC)C(C)C.O=CO.O=CO
Ritu4,CCCCCCCCCCCCCCCC(CCCCCCCCCCCCCCC)N(C(=O)O)C(=O)O
Ritu5,CCCCCCCCCCCCCCCC(O)CCCCCCCCCCCCCCC
Ritu6,CCCCCCCCCCCC(CCCCCCCCCCC)C(N)=O
Ritu7,CCCCCCCCCCCCCCCCCCCC(N)=O
Ritu8,C[N+](C)(C)CCCN
Ritu9,C[N+](C)(C)CCCCN
Ritu10,C[N+](C)(C)CC(N)=O
Ritu11,C[N+](C)(C)CC(=O)O
Test,OCC[N+](C)(C)C
NQY (P),CCCCCCCCCCCCCCCC(N(CCC[N+](C)(C)C)CCC[N+](C)(C)C)CCCCCCCCCCCCCCC.O=S(C)(O[O])=O.O=S(C)(O[O])=O
